Memoria/Outs_16_Ports/simulation/qsim/Outs_16_Ports.msim.vcd
$comment
	File created using the following command:
		vcd file Outs_16_Ports.msim.vcd -direction
$end
$date
	Thu Jan 27 07:27:42 2022
$end
$version
	ModelSim Version 10.1d
$end
$timescale
	1ps
$end
$scope module Outs_16_Ports_vlg_vec_tst $end
$var reg 8 ! address [7:0] $end
$var reg 1 " clock $end
$var reg 8 # data_in [7:0] $end
$var reg 1 $ reset $end
$var reg 1 % writen $end
$var wire 1 & port_Out_00 [7] $end
$var wire 1 ' port_Out_00 [6] $end
$var wire 1 ( port_Out_00 [5] $end
$var wire 1 ) port_Out_00 [4] $end
$var wire 1 * port_Out_00 [3] $end
$var wire 1 + port_Out_00 [2] $end
$var wire 1 , port_Out_00 [1] $end
$var wire 1 - port_Out_00 [0] $end
$var wire 1 . port_Out_01 [7] $end
$var wire 1 / port_Out_01 [6] $end
$var wire 1 0 port_Out_01 [5] $end
$var wire 1 1 port_Out_01 [4] $end
$var wire 1 2 port_Out_01 [3] $end
$var wire 1 3 port_Out_01 [2] $end
$var wire 1 4 port_Out_01 [1] $end
$var wire 1 5 port_Out_01 [0] $end
$var wire 1 6 port_Out_02 [7] $end
$var wire 1 7 port_Out_02 [6] $end
$var wire 1 8 port_Out_02 [5] $end
$var wire 1 9 port_Out_02 [4] $end
$var wire 1 : port_Out_02 [3] $end
$var wire 1 ; port_Out_02 [2] $end
$var wire 1 < port_Out_02 [1] $end
$var wire 1 = port_Out_02 [0] $end
$var wire 1 > port_Out_03 [7] $end
$var wire 1 ? port_Out_03 [6] $end
$var wire 1 @ port_Out_03 [5] $end
$var wire 1 A port_Out_03 [4] $end
$var wire 1 B port_Out_03 [3] $end
$var wire 1 C port_Out_03 [2] $end
$var wire 1 D port_Out_03 [1] $end
$var wire 1 E port_Out_03 [0] $end
$var wire 1 F port_Out_04 [7] $end
$var wire 1 G port_Out_04 [6] $end
$var wire 1 H port_Out_04 [5] $end
$var wire 1 I port_Out_04 [4] $end
$var wire 1 J port_Out_04 [3] $end
$var wire 1 K port_Out_04 [2] $end
$var wire 1 L port_Out_04 [1] $end
$var wire 1 M port_Out_04 [0] $end
$var wire 1 N port_Out_05 [7] $end
$var wire 1 O port_Out_05 [6] $end
$var wire 1 P port_Out_05 [5] $end
$var wire 1 Q port_Out_05 [4] $end
$var wire 1 R port_Out_05 [3] $end
$var wire 1 S port_Out_05 [2] $end
$var wire 1 T port_Out_05 [1] $end
$var wire 1 U port_Out_05 [0] $end
$var wire 1 V port_Out_06 [7] $end
$var wire 1 W port_Out_06 [6] $end
$var wire 1 X port_Out_06 [5] $end
$var wire 1 Y port_Out_06 [4] $end
$var wire 1 Z port_Out_06 [3] $end
$var wire 1 [ port_Out_06 [2] $end
$var wire 1 \ port_Out_06 [1] $end
$var wire 1 ] port_Out_06 [0] $end
$var wire 1 ^ port_Out_07 [7] $end
$var wire 1 _ port_Out_07 [6] $end
$var wire 1 ` port_Out_07 [5] $end
$var wire 1 a port_Out_07 [4] $end
$var wire 1 b port_Out_07 [3] $end
$var wire 1 c port_Out_07 [2] $end
$var wire 1 d port_Out_07 [1] $end
$var wire 1 e port_Out_07 [0] $end
$var wire 1 f port_Out_08 [7] $end
$var wire 1 g port_Out_08 [6] $end
$var wire 1 h port_Out_08 [5] $end
$var wire 1 i port_Out_08 [4] $end
$var wire 1 j port_Out_08 [3] $end
$var wire 1 k port_Out_08 [2] $end
$var wire 1 l port_Out_08 [1] $end
$var wire 1 m port_Out_08 [0] $end
$var wire 1 n port_Out_09 [7] $end
$var wire 1 o port_Out_09 [6] $end
$var wire 1 p port_Out_09 [5] $end
$var wire 1 q port_Out_09 [4] $end
$var wire 1 r port_Out_09 [3] $end
$var wire 1 s port_Out_09 [2] $end
$var wire 1 t port_Out_09 [1] $end
$var wire 1 u port_Out_09 [0] $end
$var wire 1 v port_Out_10 [7] $end
$var wire 1 w port_Out_10 [6] $end
$var wire 1 x port_Out_10 [5] $end
$var wire 1 y port_Out_10 [4] $end
$var wire 1 z port_Out_10 [3] $end
$var wire 1 { port_Out_10 [2] $end
$var wire 1 | port_Out_10 [1] $end
$var wire 1 } port_Out_10 [0] $end
$var wire 1 ~ port_Out_11 [7] $end
$var wire 1 !! port_Out_11 [6] $end
$var wire 1 "! port_Out_11 [5] $end
$var wire 1 #! port_Out_11 [4] $end
$var wire 1 $! port_Out_11 [3] $end
$var wire 1 %! port_Out_11 [2] $end
$var wire 1 &! port_Out_11 [1] $end
$var wire 1 '! port_Out_11 [0] $end
$var wire 1 (! port_Out_12 [7] $end
$var wire 1 )! port_Out_12 [6] $end
$var wire 1 *! port_Out_12 [5] $end
$var wire 1 +! port_Out_12 [4] $end
$var wire 1 ,! port_Out_12 [3] $end
$var wire 1 -! port_Out_12 [2] $end
$var wire 1 .! port_Out_12 [1] $end
$var wire 1 /! port_Out_12 [0] $end
$var wire 1 0! port_Out_13 [7] $end
$var wire 1 1! port_Out_13 [6] $end
$var wire 1 2! port_Out_13 [5] $end
$var wire 1 3! port_Out_13 [4] $end
$var wire 1 4! port_Out_13 [3] $end
$var wire 1 5! port_Out_13 [2] $end
$var wire 1 6! port_Out_13 [1] $end
$var wire 1 7! port_Out_13 [0] $end
$var wire 1 8! port_Out_14 [7] $end
$var wire 1 9! port_Out_14 [6] $end
$var wire 1 :! port_Out_14 [5] $end
$var wire 1 ;! port_Out_14 [4] $end
$var wire 1 <! port_Out_14 [3] $end
$var wire 1 =! port_Out_14 [2] $end
$var wire 1 >! port_Out_14 [1] $end
$var wire 1 ?! port_Out_14 [0] $end
$var wire 1 @! port_Out_15 [7] $end
$var wire 1 A! port_Out_15 [6] $end
$var wire 1 B! port_Out_15 [5] $end
$var wire 1 C! port_Out_15 [4] $end
$var wire 1 D! port_Out_15 [3] $end
$var wire 1 E! port_Out_15 [2] $end
$var wire 1 F! port_Out_15 [1] $end
$var wire 1 G! port_Out_15 [0] $end
$var wire 1 H! sampler $end
$scope module i1 $end
$var wire 1 I! gnd $end
$var wire 1 J! vcc $end
$var wire 1 K! unknown $end
$var tri1 1 L! devclrn $end
$var tri1 1 M! devpor $end
$var tri1 1 N! devoe $end
$var wire 1 O! port_Out_00[0]~output_o $end
$var wire 1 P! port_Out_00[1]~output_o $end
$var wire 1 Q! port_Out_00[2]~output_o $end
$var wire 1 R! port_Out_00[3]~output_o $end
$var wire 1 S! port_Out_00[4]~output_o $end
$var wire 1 T! port_Out_00[5]~output_o $end
$var wire 1 U! port_Out_00[6]~output_o $end
$var wire 1 V! port_Out_00[7]~output_o $end
$var wire 1 W! port_Out_01[0]~output_o $end
$var wire 1 X! port_Out_01[1]~output_o $end
$var wire 1 Y! port_Out_01[2]~output_o $end
$var wire 1 Z! port_Out_01[3]~output_o $end
$var wire 1 [! port_Out_01[4]~output_o $end
$var wire 1 \! port_Out_01[5]~output_o $end
$var wire 1 ]! port_Out_01[6]~output_o $end
$var wire 1 ^! port_Out_01[7]~output_o $end
$var wire 1 _! port_Out_02[0]~output_o $end
$var wire 1 `! port_Out_02[1]~output_o $end
$var wire 1 a! port_Out_02[2]~output_o $end
$var wire 1 b! port_Out_02[3]~output_o $end
$var wire 1 c! port_Out_02[4]~output_o $end
$var wire 1 d! port_Out_02[5]~output_o $end
$var wire 1 e! port_Out_02[6]~output_o $end
$var wire 1 f! port_Out_02[7]~output_o $end
$var wire 1 g! port_Out_03[0]~output_o $end
$var wire 1 h! port_Out_03[1]~output_o $end
$var wire 1 i! port_Out_03[2]~output_o $end
$var wire 1 j! port_Out_03[3]~output_o $end
$var wire 1 k! port_Out_03[4]~output_o $end
$var wire 1 l! port_Out_03[5]~output_o $end
$var wire 1 m! port_Out_03[6]~output_o $end
$var wire 1 n! port_Out_03[7]~output_o $end
$var wire 1 o! port_Out_04[0]~output_o $end
$var wire 1 p! port_Out_04[1]~output_o $end
$var wire 1 q! port_Out_04[2]~output_o $end
$var wire 1 r! port_Out_04[3]~output_o $end
$var wire 1 s! port_Out_04[4]~output_o $end
$var wire 1 t! port_Out_04[5]~output_o $end
$var wire 1 u! port_Out_04[6]~output_o $end
$var wire 1 v! port_Out_04[7]~output_o $end
$var wire 1 w! port_Out_05[0]~output_o $end
$var wire 1 x! port_Out_05[1]~output_o $end
$var wire 1 y! port_Out_05[2]~output_o $end
$var wire 1 z! port_Out_05[3]~output_o $end
$var wire 1 {! port_Out_05[4]~output_o $end
$var wire 1 |! port_Out_05[5]~output_o $end
$var wire 1 }! port_Out_05[6]~output_o $end
$var wire 1 ~! port_Out_05[7]~output_o $end
$var wire 1 !" port_Out_06[0]~output_o $end
$var wire 1 "" port_Out_06[1]~output_o $end
$var wire 1 #" port_Out_06[2]~output_o $end
$var wire 1 $" port_Out_06[3]~output_o $end
$var wire 1 %" port_Out_06[4]~output_o $end
$var wire 1 &" port_Out_06[5]~output_o $end
$var wire 1 '" port_Out_06[6]~output_o $end
$var wire 1 (" port_Out_06[7]~output_o $end
$var wire 1 )" port_Out_07[0]~output_o $end
$var wire 1 *" port_Out_07[1]~output_o $end
$var wire 1 +" port_Out_07[2]~output_o $end
$var wire 1 ," port_Out_07[3]~output_o $end
$var wire 1 -" port_Out_07[4]~output_o $end
$var wire 1 ." port_Out_07[5]~output_o $end
$var wire 1 /" port_Out_07[6]~output_o $end
$var wire 1 0" port_Out_07[7]~output_o $end
$var wire 1 1" port_Out_08[0]~output_o $end
$var wire 1 2" port_Out_08[1]~output_o $end
$var wire 1 3" port_Out_08[2]~output_o $end
$var wire 1 4" port_Out_08[3]~output_o $end
$var wire 1 5" port_Out_08[4]~output_o $end
$var wire 1 6" port_Out_08[5]~output_o $end
$var wire 1 7" port_Out_08[6]~output_o $end
$var wire 1 8" port_Out_08[7]~output_o $end
$var wire 1 9" port_Out_09[0]~output_o $end
$var wire 1 :" port_Out_09[1]~output_o $end
$var wire 1 ;" port_Out_09[2]~output_o $end
$var wire 1 <" port_Out_09[3]~output_o $end
$var wire 1 =" port_Out_09[4]~output_o $end
$var wire 1 >" port_Out_09[5]~output_o $end
$var wire 1 ?" port_Out_09[6]~output_o $end
$var wire 1 @" port_Out_09[7]~output_o $end
$var wire 1 A" port_Out_10[0]~output_o $end
$var wire 1 B" port_Out_10[1]~output_o $end
$var wire 1 C" port_Out_10[2]~output_o $end
$var wire 1 D" port_Out_10[3]~output_o $end
$var wire 1 E" port_Out_10[4]~output_o $end
$var wire 1 F" port_Out_10[5]~output_o $end
$var wire 1 G" port_Out_10[6]~output_o $end
$var wire 1 H" port_Out_10[7]~output_o $end
$var wire 1 I" port_Out_11[0]~output_o $end
$var wire 1 J" port_Out_11[1]~output_o $end
$var wire 1 K" port_Out_11[2]~output_o $end
$var wire 1 L" port_Out_11[3]~output_o $end
$var wire 1 M" port_Out_11[4]~output_o $end
$var wire 1 N" port_Out_11[5]~output_o $end
$var wire 1 O" port_Out_11[6]~output_o $end
$var wire 1 P" port_Out_11[7]~output_o $end
$var wire 1 Q" port_Out_12[0]~output_o $end
$var wire 1 R" port_Out_12[1]~output_o $end
$var wire 1 S" port_Out_12[2]~output_o $end
$var wire 1 T" port_Out_12[3]~output_o $end
$var wire 1 U" port_Out_12[4]~output_o $end
$var wire 1 V" port_Out_12[5]~output_o $end
$var wire 1 W" port_Out_12[6]~output_o $end
$var wire 1 X" port_Out_12[7]~output_o $end
$var wire 1 Y" port_Out_13[0]~output_o $end
$var wire 1 Z" port_Out_13[1]~output_o $end
$var wire 1 [" port_Out_13[2]~output_o $end
$var wire 1 \" port_Out_13[3]~output_o $end
$var wire 1 ]" port_Out_13[4]~output_o $end
$var wire 1 ^" port_Out_13[5]~output_o $end
$var wire 1 _" port_Out_13[6]~output_o $end
$var wire 1 `" port_Out_13[7]~output_o $end
$var wire 1 a" port_Out_14[0]~output_o $end
$var wire 1 b" port_Out_14[1]~output_o $end
$var wire 1 c" port_Out_14[2]~output_o $end
$var wire 1 d" port_Out_14[3]~output_o $end
$var wire 1 e" port_Out_14[4]~output_o $end
$var wire 1 f" port_Out_14[5]~output_o $end
$var wire 1 g" port_Out_14[6]~output_o $end
$var wire 1 h" port_Out_14[7]~output_o $end
$var wire 1 i" port_Out_15[0]~output_o $end
$var wire 1 j" port_Out_15[1]~output_o $end
$var wire 1 k" port_Out_15[2]~output_o $end
$var wire 1 l" port_Out_15[3]~output_o $end
$var wire 1 m" port_Out_15[4]~output_o $end
$var wire 1 n" port_Out_15[5]~output_o $end
$var wire 1 o" port_Out_15[6]~output_o $end
$var wire 1 p" port_Out_15[7]~output_o $end
$var wire 1 q" clock~input_o $end
$var wire 1 r" clock~inputclkctrl_outclk $end
$var wire 1 s" data_in[0]~input_o $end
$var wire 1 t" reset~input_o $end
$var wire 1 u" reset~inputclkctrl_outclk $end
$var wire 1 v" address[1]~input_o $end
$var wire 1 w" address[0]~input_o $end
$var wire 1 x" address[6]~input_o $end
$var wire 1 y" address[7]~input_o $end
$var wire 1 z" address[5]~input_o $end
$var wire 1 {" address[4]~input_o $end
$var wire 1 |" U3~0_combout $end
$var wire 1 }" writen~input_o $end
$var wire 1 ~" U3~1_combout $end
$var wire 1 !# address[2]~input_o $end
$var wire 1 "# address[3]~input_o $end
$var wire 1 ## U3~2_combout $end
$var wire 1 $# port_Out_00[0]~reg0_q $end
$var wire 1 %# data_in[1]~input_o $end
$var wire 1 &# port_Out_00[1]~reg0feeder_combout $end
$var wire 1 '# port_Out_00[1]~reg0_q $end
$var wire 1 (# data_in[2]~input_o $end
$var wire 1 )# port_Out_00[2]~reg0_q $end
$var wire 1 *# data_in[3]~input_o $end
$var wire 1 +# port_Out_00[3]~reg0feeder_combout $end
$var wire 1 ,# port_Out_00[3]~reg0_q $end
$var wire 1 -# data_in[4]~input_o $end
$var wire 1 .# port_Out_00[4]~reg0_q $end
$var wire 1 /# data_in[5]~input_o $end
$var wire 1 0# port_Out_00[5]~reg0_q $end
$var wire 1 1# data_in[6]~input_o $end
$var wire 1 2# port_Out_00[6]~reg0feeder_combout $end
$var wire 1 3# port_Out_00[6]~reg0_q $end
$var wire 1 4# data_in[7]~input_o $end
$var wire 1 5# port_Out_00[7]~reg0feeder_combout $end
$var wire 1 6# port_Out_00[7]~reg0_q $end
$var wire 1 7# U4~0_combout $end
$var wire 1 8# U4~1_combout $end
$var wire 1 9# port_Out_01[0]~reg0_q $end
$var wire 1 :# port_Out_01[1]~reg0feeder_combout $end
$var wire 1 ;# port_Out_01[1]~reg0_q $end
$var wire 1 <# port_Out_01[2]~reg0_q $end
$var wire 1 =# port_Out_01[3]~reg0feeder_combout $end
$var wire 1 ># port_Out_01[3]~reg0_q $end
$var wire 1 ?# port_Out_01[4]~reg0_q $end
$var wire 1 @# port_Out_01[5]~reg0_q $end
$var wire 1 A# port_Out_01[6]~reg0feeder_combout $end
$var wire 1 B# port_Out_01[6]~reg0_q $end
$var wire 1 C# port_Out_01[7]~reg0feeder_combout $end
$var wire 1 D# port_Out_01[7]~reg0_q $end
$var wire 1 E# U5~0_combout $end
$var wire 1 F# port_Out_02[0]~reg0_q $end
$var wire 1 G# port_Out_02[1]~reg0feeder_combout $end
$var wire 1 H# port_Out_02[1]~reg0_q $end
$var wire 1 I# port_Out_02[2]~reg0_q $end
$var wire 1 J# port_Out_02[3]~reg0feeder_combout $end
$var wire 1 K# port_Out_02[3]~reg0_q $end
$var wire 1 L# port_Out_02[4]~reg0_q $end
$var wire 1 M# port_Out_02[5]~reg0feeder_combout $end
$var wire 1 N# port_Out_02[5]~reg0_q $end
$var wire 1 O# port_Out_02[6]~reg0_q $end
$var wire 1 P# port_Out_02[7]~reg0feeder_combout $end
$var wire 1 Q# port_Out_02[7]~reg0_q $end
$var wire 1 R# U6~0_combout $end
$var wire 1 S# port_Out_03[0]~reg0_q $end
$var wire 1 T# port_Out_03[1]~reg0feeder_combout $end
$var wire 1 U# port_Out_03[1]~reg0_q $end
$var wire 1 V# port_Out_03[2]~reg0_q $end
$var wire 1 W# port_Out_03[3]~reg0feeder_combout $end
$var wire 1 X# port_Out_03[3]~reg0_q $end
$var wire 1 Y# port_Out_03[4]~reg0_q $end
$var wire 1 Z# port_Out_03[5]~reg0feeder_combout $end
$var wire 1 [# port_Out_03[5]~reg0_q $end
$var wire 1 \# port_Out_03[6]~reg0_q $end
$var wire 1 ]# port_Out_03[7]~reg0feeder_combout $end
$var wire 1 ^# port_Out_03[7]~reg0_q $end
$var wire 1 _# U7~0_combout $end
$var wire 1 `# port_Out_04[0]~reg0_q $end
$var wire 1 a# port_Out_04[1]~reg0feeder_combout $end
$var wire 1 b# port_Out_04[1]~reg0_q $end
$var wire 1 c# port_Out_04[2]~reg0_q $end
$var wire 1 d# port_Out_04[3]~reg0feeder_combout $end
$var wire 1 e# port_Out_04[3]~reg0_q $end
$var wire 1 f# port_Out_04[4]~reg0feeder_combout $end
$var wire 1 g# port_Out_04[4]~reg0_q $end
$var wire 1 h# port_Out_04[5]~reg0_q $end
$var wire 1 i# port_Out_04[6]~reg0feeder_combout $end
$var wire 1 j# port_Out_04[6]~reg0_q $end
$var wire 1 k# port_Out_04[7]~reg0_q $end
$var wire 1 l# port_Out_05[0]~reg0feeder_combout $end
$var wire 1 m# U8~0_combout $end
$var wire 1 n# port_Out_05[0]~reg0_q $end
$var wire 1 o# port_Out_05[1]~reg0_q $end
$var wire 1 p# port_Out_05[2]~reg0_q $end
$var wire 1 q# port_Out_05[3]~reg0feeder_combout $end
$var wire 1 r# port_Out_05[3]~reg0_q $end
$var wire 1 s# port_Out_05[4]~reg0_q $end
$var wire 1 t# port_Out_05[5]~reg0feeder_combout $end
$var wire 1 u# port_Out_05[5]~reg0_q $end
$var wire 1 v# port_Out_05[6]~reg0feeder_combout $end
$var wire 1 w# port_Out_05[6]~reg0_q $end
$var wire 1 x# port_Out_05[7]~reg0_q $end
$var wire 1 y# port_Out_06[0]~reg0feeder_combout $end
$var wire 1 z# U9~0_combout $end
$var wire 1 {# port_Out_06[0]~reg0_q $end
$var wire 1 |# port_Out_06[1]~reg0_q $end
$var wire 1 }# port_Out_06[2]~reg0_q $end
$var wire 1 ~# port_Out_06[3]~reg0_q $end
$var wire 1 !$ port_Out_06[4]~reg0feeder_combout $end
$var wire 1 "$ port_Out_06[4]~reg0_q $end
$var wire 1 #$ port_Out_06[5]~reg0_q $end
$var wire 1 $$ port_Out_06[6]~reg0feeder_combout $end
$var wire 1 %$ port_Out_06[6]~reg0_q $end
$var wire 1 &$ port_Out_06[7]~reg0feeder_combout $end
$var wire 1 '$ port_Out_06[7]~reg0_q $end
$var wire 1 ($ U10~0_combout $end
$var wire 1 )$ port_Out_07[0]~reg0_q $end
$var wire 1 *$ port_Out_07[1]~reg0feeder_combout $end
$var wire 1 +$ port_Out_07[1]~reg0_q $end
$var wire 1 ,$ port_Out_07[2]~reg0_q $end
$var wire 1 -$ port_Out_07[3]~reg0feeder_combout $end
$var wire 1 .$ port_Out_07[3]~reg0_q $end
$var wire 1 /$ port_Out_07[4]~reg0feeder_combout $end
$var wire 1 0$ port_Out_07[4]~reg0_q $end
$var wire 1 1$ port_Out_07[5]~reg0_q $end
$var wire 1 2$ port_Out_07[6]~reg0feeder_combout $end
$var wire 1 3$ port_Out_07[6]~reg0_q $end
$var wire 1 4$ port_Out_07[7]~reg0_q $end
$var wire 1 5$ port_Out_08[0]~reg0feeder_combout $end
$var wire 1 6$ U11~0_combout $end
$var wire 1 7$ port_Out_08[0]~reg0_q $end
$var wire 1 8$ port_Out_08[1]~reg0_q $end
$var wire 1 9$ port_Out_08[2]~reg0_q $end
$var wire 1 :$ port_Out_08[3]~reg0_q $end
$var wire 1 ;$ port_Out_08[4]~reg0feeder_combout $end
$var wire 1 <$ port_Out_08[4]~reg0_q $end
$var wire 1 =$ port_Out_08[5]~reg0_q $end
$var wire 1 >$ port_Out_08[6]~reg0feeder_combout $end
$var wire 1 ?$ port_Out_08[6]~reg0_q $end
$var wire 1 @$ port_Out_08[7]~reg0feeder_combout $end
$var wire 1 A$ port_Out_08[7]~reg0_q $end
$var wire 1 B$ port_Out_09[0]~reg0feeder_combout $end
$var wire 1 C$ U12~0_combout $end
$var wire 1 D$ port_Out_09[0]~reg0_q $end
$var wire 1 E$ port_Out_09[1]~reg0feeder_combout $end
$var wire 1 F$ port_Out_09[1]~reg0_q $end
$var wire 1 G$ port_Out_09[2]~reg0feeder_combout $end
$var wire 1 H$ port_Out_09[2]~reg0_q $end
$var wire 1 I$ port_Out_09[3]~reg0_q $end
$var wire 1 J$ port_Out_09[4]~reg0feeder_combout $end
$var wire 1 K$ port_Out_09[4]~reg0_q $end
$var wire 1 L$ port_Out_09[5]~reg0_q $end
$var wire 1 M$ port_Out_09[6]~reg0_q $end
$var wire 1 N$ port_Out_09[7]~reg0feeder_combout $end
$var wire 1 O$ port_Out_09[7]~reg0_q $end
$var wire 1 P$ port_Out_10[0]~reg0feeder_combout $end
$var wire 1 Q$ U13~0_combout $end
$var wire 1 R$ port_Out_10[0]~reg0_q $end
$var wire 1 S$ port_Out_10[1]~reg0_q $end
$var wire 1 T$ port_Out_10[2]~reg0_q $end
$var wire 1 U$ port_Out_10[3]~reg0_q $end
$var wire 1 V$ port_Out_10[4]~reg0_q $end
$var wire 1 W$ port_Out_10[5]~reg0feeder_combout $end
$var wire 1 X$ port_Out_10[5]~reg0_q $end
$var wire 1 Y$ port_Out_10[6]~reg0feeder_combout $end
$var wire 1 Z$ port_Out_10[6]~reg0_q $end
$var wire 1 [$ port_Out_10[7]~reg0feeder_combout $end
$var wire 1 \$ port_Out_10[7]~reg0_q $end
$var wire 1 ]$ port_Out_11[0]~reg0feeder_combout $end
$var wire 1 ^$ U14~0_combout $end
$var wire 1 _$ port_Out_11[0]~reg0_q $end
$var wire 1 `$ port_Out_11[1]~reg0feeder_combout $end
$var wire 1 a$ port_Out_11[1]~reg0_q $end
$var wire 1 b$ port_Out_11[2]~reg0_q $end
$var wire 1 c$ port_Out_11[3]~reg0_q $end
$var wire 1 d$ port_Out_11[4]~reg0feeder_combout $end
$var wire 1 e$ port_Out_11[4]~reg0_q $end
$var wire 1 f$ port_Out_11[5]~reg0_q $end
$var wire 1 g$ port_Out_11[6]~reg0feeder_combout $end
$var wire 1 h$ port_Out_11[6]~reg0_q $end
$var wire 1 i$ port_Out_11[7]~reg0_q $end
$var wire 1 j$ port_Out_12[0]~reg0feeder_combout $end
$var wire 1 k$ U15~0_combout $end
$var wire 1 l$ port_Out_12[0]~reg0_q $end
$var wire 1 m$ port_Out_12[1]~reg0_q $end
$var wire 1 n$ port_Out_12[2]~reg0_q $end
$var wire 1 o$ port_Out_12[3]~reg0_q $end
$var wire 1 p$ port_Out_12[4]~reg0_q $end
$var wire 1 q$ port_Out_12[5]~reg0feeder_combout $end
$var wire 1 r$ port_Out_12[5]~reg0_q $end
$var wire 1 s$ port_Out_12[6]~reg0feeder_combout $end
$var wire 1 t$ port_Out_12[6]~reg0_q $end
$var wire 1 u$ port_Out_12[7]~reg0feeder_combout $end
$var wire 1 v$ port_Out_12[7]~reg0_q $end
$var wire 1 w$ port_Out_13[0]~reg0feeder_combout $end
$var wire 1 x$ U16~0_combout $end
$var wire 1 y$ port_Out_13[0]~reg0_q $end
$var wire 1 z$ port_Out_13[1]~reg0feeder_combout $end
$var wire 1 {$ port_Out_13[1]~reg0_q $end
$var wire 1 |$ port_Out_13[2]~reg0_q $end
$var wire 1 }$ port_Out_13[3]~reg0_q $end
$var wire 1 ~$ port_Out_13[4]~reg0feeder_combout $end
$var wire 1 !% port_Out_13[4]~reg0_q $end
$var wire 1 "% port_Out_13[5]~reg0_q $end
$var wire 1 #% port_Out_13[6]~reg0feeder_combout $end
$var wire 1 $% port_Out_13[6]~reg0_q $end
$var wire 1 %% port_Out_13[7]~reg0_q $end
$var wire 1 &% port_Out_14[0]~reg0feeder_combout $end
$var wire 1 '% U17~0_combout $end
$var wire 1 (% port_Out_14[0]~reg0_q $end
$var wire 1 )% port_Out_14[1]~reg0feeder_combout $end
$var wire 1 *% port_Out_14[1]~reg0_q $end
$var wire 1 +% port_Out_14[2]~reg0feeder_combout $end
$var wire 1 ,% port_Out_14[2]~reg0_q $end
$var wire 1 -% port_Out_14[3]~reg0_q $end
$var wire 1 .% port_Out_14[4]~reg0feeder_combout $end
$var wire 1 /% port_Out_14[4]~reg0_q $end
$var wire 1 0% port_Out_14[5]~reg0_q $end
$var wire 1 1% port_Out_14[6]~reg0_q $end
$var wire 1 2% port_Out_14[7]~reg0feeder_combout $end
$var wire 1 3% port_Out_14[7]~reg0_q $end
$var wire 1 4% port_Out_15[0]~reg0feeder_combout $end
$var wire 1 5% U18~0_combout $end
$var wire 1 6% port_Out_15[0]~reg0_q $end
$var wire 1 7% port_Out_15[1]~reg0_q $end
$var wire 1 8% port_Out_15[2]~reg0_q $end
$var wire 1 9% port_Out_15[3]~reg0feeder_combout $end
$var wire 1 :% port_Out_15[3]~reg0_q $end
$var wire 1 ;% port_Out_15[4]~reg0_q $end
$var wire 1 <% port_Out_15[5]~reg0feeder_combout $end
$var wire 1 =% port_Out_15[5]~reg0_q $end
$var wire 1 >% port_Out_15[6]~reg0feeder_combout $end
$var wire 1 ?% port_Out_15[6]~reg0_q $end
$var wire 1 @% port_Out_15[7]~reg0_q $end
$upscope $end
$upscope $end
$enddefinitions $end
#0
$dumpvars
b11100000 !
0"
b10101010 #
1$
1%
0-
0,
0+
0*
0)
0(
0'
0&
05
04
03
02
01
00
0/
0.
0=
0<
0;
0:
09
08
07
06
0E
0D
0C
0B
0A
0@
0?
0>
0M
0L
0K
0J
0I
0H
0G
0F
0U
0T
0S
0R
0Q
0P
0O
0N
0]
0\
0[
0Z
0Y
0X
0W
0V
0e
0d
0c
0b
0a
0`
0_
0^
0m
0l
0k
0j
0i
0h
0g
0f
0u
0t
0s
0r
0q
0p
0o
0n
0}
0|
0{
0z
0y
0x
0w
0v
0'!
0&!
0%!
0$!
0#!
0"!
0!!
0~
0/!
0.!
0-!
0,!
0+!
0*!
0)!
0(!
07!
06!
05!
04!
03!
02!
01!
00!
0?!
0>!
0=!
0<!
0;!
0:!
09!
08!
0G!
0F!
0E!
0D!
0C!
0B!
0A!
0@!
xH!
0I!
1J!
xK!
1L!
1M!
1N!
0O!
0P!
0Q!
0R!
0S!
0T!
0U!
0V!
0W!
0X!
0Y!
0Z!
0[!
0\!
0]!
0^!
0_!
0`!
0a!
0b!
0c!
0d!
0e!
0f!
0g!
0h!
0i!
0j!
0k!
0l!
0m!
0n!
0o!
0p!
0q!
0r!
0s!
0t!
0u!
0v!
0w!
0x!
0y!
0z!
0{!
0|!
0}!
0~!
0!"
0""
0#"
0$"
0%"
0&"
0'"
0("
0)"
0*"
0+"
0,"
0-"
0."
0/"
00"
01"
02"
03"
04"
05"
06"
07"
08"
09"
0:"
0;"
0<"
0="
0>"
0?"
0@"
0A"
0B"
0C"
0D"
0E"
0F"
0G"
0H"
0I"
0J"
0K"
0L"
0M"
0N"
0O"
0P"
0Q"
0R"
0S"
0T"
0U"
0V"
0W"
0X"
0Y"
0Z"
0["
0\"
0]"
0^"
0_"
0`"
0a"
0b"
0c"
0d"
0e"
0f"
0g"
0h"
0i"
0j"
0k"
0l"
0m"
0n"
0o"
0p"
0q"
0r"
0s"
1t"
1u"
0v"
0w"
1x"
1y"
1z"
0{"
1|"
1}"
1~"
0!#
0"#
1##
0$#
1%#
1&#
0'#
0(#
0)#
1*#
1+#
0,#
0-#
0.#
1/#
00#
01#
02#
03#
14#
15#
06#
07#
08#
09#
1:#
0;#
0<#
1=#
0>#
0?#
0@#
0A#
0B#
1C#
0D#
0E#
0F#
1G#
0H#
0I#
1J#
0K#
0L#
1M#
0N#
0O#
1P#
0Q#
0R#
0S#
1T#
0U#
0V#
1W#
0X#
0Y#
1Z#
0[#
0\#
1]#
0^#
0_#
0`#
1a#
0b#
0c#
1d#
0e#
0f#
0g#
0h#
0i#
0j#
0k#
0l#
0m#
0n#
0o#
0p#
1q#
0r#
0s#
1t#
0u#
0v#
0w#
0x#
0y#
0z#
0{#
0|#
0}#
0~#
0!$
0"$
0#$
0$$
0%$
1&$
0'$
0($
0)$
1*$
0+$
0,$
1-$
0.$
0/$
00$
01$
02$
03$
04$
05$
06$
07$
08$
09$
0:$
0;$
0<$
0=$
0>$
0?$
1@$
0A$
0B$
0C$
0D$
1E$
0F$
0G$
0H$
0I$
0J$
0K$
0L$
0M$
1N$
0O$
0P$
0Q$
0R$
0S$
0T$
0U$
0V$
1W$
0X$
0Y$
0Z$
1[$
0\$
0]$
0^$
0_$
1`$
0a$
0b$
0c$
0d$
0e$
0f$
0g$
0h$
0i$
0j$
0k$
0l$
0m$
0n$
0o$
0p$
1q$
0r$
0s$
0t$
1u$
0v$
0w$
0x$
0y$
1z$
0{$
0|$
0}$
0~$
0!%
0"%
0#%
0$%
0%%
0&%
0'%
0(%
1)%
0*%
0+%
0,%
0-%
0.%
0/%
00%
01%
12%
03%
04%
05%
06%
07%
08%
19%
0:%
0;%
1<%
0=%
0>%
0?%
0@%
$end
#15000
1"
1q"
1r"
0H!
16#
10#
1,#
1'#
1V!
1T!
1R!
1P!
1&
1(
1*
1,
#30000
0"
0q"
0r"
1H!
#45000
1"
1q"
1r"
0H!
#60000
b11100001 !
0"
1w"
0q"
0r"
1H!
17#
0~"
18#
0##
#75000
1"
1q"
1r"
0H!
1D#
1@#
1>#
1;#
1^!
1\!
1Z!
1X!
1.
10
12
14
#90000
0"
0q"
0r"
1H!
#105000
1"
1q"
1r"
0H!
#120000
b11100011 !
b11100010 !
0"
0w"
1v"
0q"
0r"
1H!
07#
1~"
1R#
08#
0R#
1E#
