Memoria/alu/simulation/qsim/alu.msim.vcd
$comment
	File created using the following command:
		vcd file alu.msim.vcd -direction
$end
$date
	Thu Jan 27 15:06:20 2022
$end
$version
	ModelSim Version 10.1d
$end
$timescale
	1ps
$end
$scope module alu_vlg_vec_tst $end
$var reg 3 ! ALU_Sel [2:0] $end
$var reg 8 " B [7:0] $end
$var reg 8 # Bus1 [7:0] $end
$var wire 1 $ ALU_Result [7] $end
$var wire 1 % ALU_Result [6] $end
$var wire 1 & ALU_Result [5] $end
$var wire 1 ' ALU_Result [4] $end
$var wire 1 ( ALU_Result [3] $end
$var wire 1 ) ALU_Result [2] $end
$var wire 1 * ALU_Result [1] $end
$var wire 1 + ALU_Result [0] $end
$var wire 1 , NZVC [3] $end
$var wire 1 - NZVC [2] $end
$var wire 1 . NZVC [1] $end
$var wire 1 / NZVC [0] $end
$var wire 1 0 sampler $end
$scope module i1 $end
$var wire 1 1 gnd $end
$var wire 1 2 vcc $end
$var wire 1 3 unknown $end
$var tri1 1 4 devclrn $end
$var tri1 1 5 devpor $end
$var tri1 1 6 devoe $end
$var wire 1 7 ALU_Result[0]~output_o $end
$var wire 1 8 ALU_Result[1]~output_o $end
$var wire 1 9 ALU_Result[2]~output_o $end
$var wire 1 : ALU_Result[3]~output_o $end
$var wire 1 ; ALU_Result[4]~output_o $end
$var wire 1 < ALU_Result[5]~output_o $end
$var wire 1 = ALU_Result[6]~output_o $end
$var wire 1 > ALU_Result[7]~output_o $end
$var wire 1 ? NZVC[0]~output_o $end
$var wire 1 @ NZVC[1]~output_o $end
$var wire 1 A NZVC[2]~output_o $end
$var wire 1 B NZVC[3]~output_o $end
$var wire 1 C ALU_Sel[2]~input_o $end
$var wire 1 D ALU_Sel[0]~input_o $end
$var wire 1 E Bus1[0]~input_o $end
$var wire 1 F ALU_Sel[1]~input_o $end
$var wire 1 G Add0|auto_generated|_~0_combout $end
$var wire 1 H B[0]~input_o $end
$var wire 1 I Equal0~0_combout $end
$var wire 1 J Add0|auto_generated|result_int[0]~1_cout $end
$var wire 1 K Add0|auto_generated|result_int[1]~2_combout $end
$var wire 1 L Equal0~1_combout $end
$var wire 1 M Equal0~1clkctrl_outclk $end
$var wire 1 N ALU_Result[0]$latch~combout $end
$var wire 1 O B[1]~input_o $end
$var wire 1 P Bus1[1]~input_o $end
$var wire 1 Q Add0|auto_generated|_~1_combout $end
$var wire 1 R Add0|auto_generated|result_int[1]~3 $end
$var wire 1 S Add0|auto_generated|result_int[2]~4_combout $end
$var wire 1 T ALU_Result[1]$latch~combout $end
$var wire 1 U B[2]~input_o $end
$var wire 1 V Bus1[2]~input_o $end
$var wire 1 W Add0|auto_generated|_~2_combout $end
$var wire 1 X Add0|auto_generated|result_int[2]~5 $end
$var wire 1 Y Add0|auto_generated|result_int[3]~6_combout $end
$var wire 1 Z ALU_Result[2]$latch~combout $end
$var wire 1 [ B[3]~input_o $end
$var wire 1 \ Bus1[3]~input_o $end
$var wire 1 ] Add0|auto_generated|_~3_combout $end
$var wire 1 ^ Add0|auto_generated|result_int[3]~7 $end
$var wire 1 _ Add0|auto_generated|result_int[4]~8_combout $end
$var wire 1 ` ALU_Result[3]$latch~combout $end
$var wire 1 a Bus1[4]~input_o $end
$var wire 1 b Add0|auto_generated|_~4_combout $end
$var wire 1 c B[4]~input_o $end
$var wire 1 d Add0|auto_generated|result_int[4]~9 $end
$var wire 1 e Add0|auto_generated|result_int[5]~10_combout $end
$var wire 1 f ALU_Result[4]$latch~combout $end
$var wire 1 g B[5]~input_o $end
$var wire 1 h Bus1[5]~input_o $end
$var wire 1 i Add0|auto_generated|_~5_combout $end
$var wire 1 j Add0|auto_generated|result_int[5]~11 $end
$var wire 1 k Add0|auto_generated|result_int[6]~12_combout $end
$var wire 1 l ALU_Result[5]$latch~combout $end
$var wire 1 m Bus1[6]~input_o $end
$var wire 1 n Add0|auto_generated|_~6_combout $end
$var wire 1 o B[6]~input_o $end
$var wire 1 p Add0|auto_generated|result_int[6]~13 $end
$var wire 1 q Add0|auto_generated|result_int[7]~14_combout $end
$var wire 1 r ALU_Result[6]$latch~combout $end
$var wire 1 s B[7]~input_o $end
$var wire 1 t Bus1[7]~input_o $end
$var wire 1 u Add0|auto_generated|_~7_combout $end
$var wire 1 v Add0|auto_generated|result_int[7]~15 $end
$var wire 1 w Add0|auto_generated|result_int[8]~16_combout $end
$var wire 1 x ALU_Result[7]$latch~combout $end
$var wire 1 y Add0|auto_generated|result_int[8]~17 $end
$var wire 1 z Add0|auto_generated|result_int[9]~18_combout $end
$var wire 1 { NZVC[0]$latch~combout $end
$var wire 1 | Add1~1 $end
$var wire 1 } Add1~3 $end
$var wire 1 ~ Add1~5 $end
$var wire 1 !! Add1~7 $end
$var wire 1 "! Add1~9 $end
$var wire 1 #! Add1~11 $end
$var wire 1 $! Add1~13 $end
$var wire 1 %! Add1~14_combout $end
$var wire 1 &! LessThan0~1_cout $end
$var wire 1 '! LessThan0~3_cout $end
$var wire 1 (! LessThan0~5_cout $end
$var wire 1 )! LessThan0~7_cout $end
$var wire 1 *! LessThan0~9_cout $end
$var wire 1 +! LessThan0~11_cout $end
$var wire 1 ,! LessThan0~13_cout $end
$var wire 1 -! LessThan0~14_combout $end
$var wire 1 .! NZVC[1]~1_combout $end
$var wire 1 /! Add0~1 $end
$var wire 1 0! Add0~3 $end
$var wire 1 1! Add0~5 $end
$var wire 1 2! Add0~7 $end
$var wire 1 3! Add0~9 $end
$var wire 1 4! Add0~11 $end
$var wire 1 5! Add0~13 $end
$var wire 1 6! Add0~14_combout $end
$var wire 1 7! NZVC[1]~0_combout $end
$var wire 1 8! NZVC[1]~2_combout $end
$var wire 1 9! NZVC[1]$latch~combout $end
$var wire 1 :! Add0~2_combout $end
$var wire 1 ;! Add0~0_combout $end
$var wire 1 <! NZVC[2]~3_combout $end
$var wire 1 =! Add0~12_combout $end
$var wire 1 >! Add0~6_combout $end
$var wire 1 ?! Add0~8_combout $end
$var wire 1 @! Add0~10_combout $end
$var wire 1 A! Add0~4_combout $end
$var wire 1 B! NZVC[2]~4_combout $end
$var wire 1 C! NZVC[2]~5_combout $end
$var wire 1 D! Add1~6_combout $end
$var wire 1 E! Add1~8_combout $end
$var wire 1 F! Add1~4_combout $end
$var wire 1 G! Add1~10_combout $end
$var wire 1 H! NZVC[2]~7_combout $end
$var wire 1 I! Add1~2_combout $end
$var wire 1 J! Add1~0_combout $end
$var wire 1 K! NZVC[2]~6_combout $end
$var wire 1 L! Add1~12_combout $end
$var wire 1 M! NZVC[2]~8_combout $end
$var wire 1 N! NZVC[2]$latch~combout $end
$upscope $end
$upscope $end
$enddefinitions $end
#0
$dumpvars
b0 !
b1111010 "
b1010010 #
0+
0*
1)
1(
0'
0&
1%
1$
0/
1.
0-
1,
x0
01
12
x3
14
15
16
07
08
19
1:
0;
0<
1=
1>
0?
1@
0A
1B
0C
0D
0E
0F
1G
0H
1I
0J
0K
1L
1M
0N
1O
1P
0Q
1R
0S
0T
0U
0V
1W
1X
1Y
1Z
1[
0\
1]
1^
1_
1`
1a
0b
1c
0d
0e
0f
1g
0h
1i
0j
0k
0l
1m
0n
1o
1p
1q
1r
0s
0t
1u
0v
1w
1x
0y
0z
0{
1|
0}
1~
0!!
1"!
0#!
1$!
0%!
0&!
1'!
0(!
1)!
0*!
1+!
0,!
0-!
0.!
0/!
00!
01!
12!
13!
04!
15!
16!
17!
18!
19!
0:!
0;!
0<!
1=!
1>!
0?!
0@!
1A!
0B!
0C!
1D!
0E!
0F!
1G!
0H!
0I!
0J!
0K!
0L!
0M!
0N!
$end
#120000
b111010 "
b101010 "
0c
0o
00
03!
1?!
1*!
0"!
1E!
1j
1e
0=!
1,!
0$!
1L!
0q
14!
1@!
0G!
0p
1k
1-!
1%!
1f
0r
05!
1=!
1v
1q
1.!
1;
0=
1'
0%
1l
06!
0w
1<
1&
1r
1<!
07!
1=
1%
0x
08!
0B
0>
0,
0$
09!
0@
0.
#240000
b10101010 "
b10101110 "
b10101100 "
b11010010 #
b10010010 #
b10000010 #
b10001010 #
1\
0a
0m
1t
0O
1U
1s
10
02!
0>!
0D!
0]
0?!
0*!
1"!
0E!
1b
0=!
0,!
1$!
0L!
1n
17!
0.!
0u
10!
1:!
0'!
1}
1I!
0X
1S
11!
0A!
1F!
0^
0Y
1w
1?!
1d
1G!
0e
0-!
0%!
0q
18!
1y
0w
01!
1A!
0<!
0F!
1^
1Y
1>!
1T
0Z
1x
1e
1z
0>!
0_
18
09
1B
1>
1*
0)
1,
1$
0f
0r
19!
0x
1Z
0;
0=
1@
0B
0>
19
0'
0%
1.
0,
0$
1)
1f
1{
0`
1;
1?
0:
1'
1/
0(
#360000
b10101010 #
b101010 #
b1101010 #
b1111010 #
b1110010 #
0\
1a
1h
1m
0t
00
12!
1>!
1D!
1]
13!
0?!
1*!
0"!
1E!
0b
04!
0@!
0G!
0i
1=!
1,!
0$!
1L!
0n
07!
16!
1.!
1%!
1u
03!
1?!
0d
1_
1@!
0+!
1#!
1G!
0j
0e
15!
0=!
1p
0k
0%!
1q
08!
0.!
0y
1w
0@!
1j
1e
0L!
1k
06!
0v
0q
1.!
0z
1`
0f
0l
1r
09!
1x
0k
1y
0w
1:
0;
0<
1=
0@
1B
1>
1(
0'
0&
1%
0.
1,
1$
1f
1l
0r
0{
1z
1;
1<
0=
0?
1'
1&
0%
0/
0l
0x
0<
0B
0>
0&
0,
0$
1{
1?
1/
#480000
b1110110 #
b1110100 #
b1 !
b11101100 "
b11111100 "
b1111100 "
b1111000 "
b1111010 "
b1010100 #
b1011100 #
1O
0U
1c
1o
0s
1D
0P
1V
1\
0h
10
1'!
0}
1X
0S
1(!
0~
0Y
13!
0?!
0*!
1"!
0E!
0j
0e
1=!
1L!
1q
16!
0.!
1-!
1%!
0y
1w
18!
0u
1n
1b
0I
0G
02!
0>!
0D!
14!
1@!
1+!
0#!
0G!
1F!
1Y
0)!
1!!
1D!
04!
0@!
1G!
1H!
1k
08!
1.!
1y
0w
0q
1j
1e
1J
1K
1?!
0=!
0,!
1$!
0L!
0T
0Z
0f
1r
1x
19!
0H!
1*!
0"!
1E!
1=!
18!
0z
0k
0R
0K
0-!
0%!
08
09
0;
1=
1B
1>
1@
0*
0)
0'
1%
1,
1$
1.
1Z
1l
09!
0x
0r
1f
1N
0G!
1S
0.!
19
1<
0@
0B
0>
0=
1;
17
1)
1&
0.
0,
0$
0%
1'
1+
19!
0{
0l
0N
08!
1@
0?
0<
07
1.
0/
0&
0+
1T
18
1*
09!
0@
0.
#600000
b1011010 "
b11010 "
b1010 "
b10001010 "
0c
0g
0o
1s
00
0?!
0E!
0e
14!
1@!
0+!
1#!
1G!
0p
1k
0=!
1,!
0$!
1L!
1v
1q
06!
1.!
1%!
1w
05!
1=!
0L!
0q
0%!
0w
18!
0.!
0f
1l
1r
1x
16!
1.!
08!
0;
1<
1=
1B
1>
0'
1&
1%
1,
1$
0r
0x
19!
18!
0=
0B
0>
1@
0%
0,
0$
1.
09!
0@
0.
19!
1@
1.
#720000
b11011100 #
b10011100 #
b10001100 #
b10001000 #
b10001010 #
b10001110 "
b10001100 "
b11001100 "
b11011100 "
b1011100 "
0O
1U
1c
1o
0s
1P
0V
0a
0m
1t
10
0'!
1}
0S
0(!
1~
0^
0Y
0*!
1"!
1e
0,!
1$!
1q
0.!
1-!
0y
1w
1Q
0W
0b
0n
1u
0F!
1)!
0!!
0D!
1d
0_
1+!
0#!
0G!
1%!
08!
1z
0X
1S
1Y
0j
0e
0v
0q
0w
0T
0Z
1f
1r
1x
1H!
1E!
1e
1L!
0Y
1p
0k
1w
08
09
1;
1=
1B
1>
0*
0)
1'
1%
1,
1$
0`
09!
1{
1T
1Z
0f
0r
0x
0H!
1q
0:
0@
1?
18
19
0;
0=
0B
0>
0(
0.
1/
1*
1)
0'
0%
0,
0$
1f
0Z
0l
1x
1;
09
0<
1B
1>
1'
0)
0&
1,
1$
1r
1=
1%
#840000
b10101010 #
b10100010 #
b1111100 "
b100010 #
b1100010 #
b1110010 #
b111100 "
b101100 "
0c
1g
0o
0\
1a
1h
1m
0t
00
1*!
0"!
0e
04!
1k
1,!
0$!
0q
12!
1>!
1D!
0]
1b
1i
1n
06!
1.!
0-!
0%!
0u
0+!
1#!
1G!
15!
0=!
1-!
1%!
03!
1?!
1_
1j
1e
0k
1v
1q
18!
0.!
1y
0w
0f
1l
0r
0L!
16!
1.!
0@!
0p
1k
0y
1w
08!
0z
0;
1<
0=
0'
1&
0%
1`
1f
0l
1r
19!
0x
18!
0q
1z
1:
1;
0<
1=
1@
0B
0>
1(
1'
0&
1%
1.
0,
0$
1l
1x
09!
0{
1<
1B
1>
0@
0?
1&
1,
1$
0.
0/
19!
0r
1{
1@
0=
1?
1.
0%
1/
#960000
b1110000 #
b101000 "
b1010000 #
b1011000 #
b1000 "
b11000 #
b1000 #
0U
0g
0P
1\
0a
0h
0m
10
0A!
1(!
0~
1F!
1^
1Y
14!
0k
0:!
1'!
0}
0I!
0Q
02!
0>!
0D!
1]
0?!
0*!
1"!
0E!
0b
0i
05!
1=!
1L!
0n
1B!
0)!
1!!
1D!
0d
0=!
0(!
1~
0F!
1X
0S
1?!
1+!
0#!
0G!
0j
0e
1k
06!
1q
1Z
0l
1*!
0"!
1E!
1j
1e
1)!
0!!
0D!
0^
0Y
0B!
0,!
1$!
0L!
1p
0k
19
0<
1)
0&
0T
0f
1l
1r
0+!
1#!
1G!
0p
1k
0*!
1"!
0E!
1d
0_
0-!
0%!
0v
0q
08
0;
1<
1=
0*
0'
1&
1%
1f
0Z
0l
1,!
0$!
1L!
1v
1q
1+!
0#!
0G!
0j
0e
0.!
1K!
1y
0w
1;
09
0<
1'
0)
0&
1l
0`
0r
1-!
1%!
0y
1w
0,!
1$!
0L!
1H!
1p
0k
08!
0z
1<
0:
0=
1&
0(
0%
1r
0f
0x
1.!
0K!
1z
0-!
0%!
1M!
0v
0q
1=
0;
0B
0>
1%
0'
0,
0$
1x
0l
09!
0{
18!
0M!
0.!
1K!
1y
0w
1B
1>
0<
0@
0?
1,
1$
0&
0.
0/
1{
1N!
0r
08!
1M!
0z
1?
1A
0=
1/
1-
0%
19!
0N!
0x
1@
0A
0B
0>
1.
0-
0,
0$
09!
1N!
0{
0@
1A
0?
0.
1-
0/
