Memoria/alu/simulation/qsim/alu.msim.vcd
$comment
	File created using the following command:
		vcd file alu.msim.vcd -direction
$end
$date
	Thu Jan 27 09:08:28 2022
$end
$version
	ModelSim Version 10.1d
$end
$timescale
	1ps
$end
$scope module alu_vlg_vec_tst $end
$var reg 3 ! ALU_Sel [2:0] $end
$var reg 8 " B [7:0] $end
$var reg 8 # Bus1 [7:0] $end
$var wire 1 $ ALU_Result [7] $end
$var wire 1 % ALU_Result [6] $end
$var wire 1 & ALU_Result [5] $end
$var wire 1 ' ALU_Result [4] $end
$var wire 1 ( ALU_Result [3] $end
$var wire 1 ) ALU_Result [2] $end
$var wire 1 * ALU_Result [1] $end
$var wire 1 + ALU_Result [0] $end
$var wire 1 , NZVC [3] $end
$var wire 1 - NZVC [2] $end
$var wire 1 . NZVC [1] $end
$var wire 1 / NZVC [0] $end
$var wire 1 0 sampler $end
$scope module i1 $end
$var wire 1 1 gnd $end
$var wire 1 2 vcc $end
$var wire 1 3 unknown $end
$var tri1 1 4 devclrn $end
$var tri1 1 5 devpor $end
$var tri1 1 6 devoe $end
$var wire 1 7 ALU_Result[0]~output_o $end
$var wire 1 8 ALU_Result[1]~output_o $end
$var wire 1 9 ALU_Result[2]~output_o $end
$var wire 1 : ALU_Result[3]~output_o $end
$var wire 1 ; ALU_Result[4]~output_o $end
$var wire 1 < ALU_Result[5]~output_o $end
$var wire 1 = ALU_Result[6]~output_o $end
$var wire 1 > ALU_Result[7]~output_o $end
$var wire 1 ? NZVC[0]~output_o $end
$var wire 1 @ NZVC[1]~output_o $end
$var wire 1 A NZVC[2]~output_o $end
$var wire 1 B NZVC[3]~output_o $end
$var wire 1 C ALU_Sel[0]~input_o $end
$var wire 1 D Bus1[0]~input_o $end
$var wire 1 E B[0]~input_o $end
$var wire 1 F Add1~0_combout $end
$var wire 1 G Add0~0_combout $end
$var wire 1 H ALU_Result[0]~0_combout $end
$var wire 1 I ALU_Sel[2]~input_o $end
$var wire 1 J ALU_Sel[1]~input_o $end
$var wire 1 K Equal0~0_combout $end
$var wire 1 L Equal0~0clkctrl_outclk $end
$var wire 1 M ALU_Result[0]$latch~combout $end
$var wire 1 N B[1]~input_o $end
$var wire 1 O Bus1[1]~input_o $end
$var wire 1 P Add0~1 $end
$var wire 1 Q Add0~2_combout $end
$var wire 1 R Add1~1 $end
$var wire 1 S Add1~2_combout $end
$var wire 1 T ALU_Result[1]~1_combout $end
$var wire 1 U ALU_Result[1]$latch~combout $end
$var wire 1 V B[2]~input_o $end
$var wire 1 W Bus1[2]~input_o $end
$var wire 1 X Add1~3 $end
$var wire 1 Y Add1~4_combout $end
$var wire 1 Z Add0~3 $end
$var wire 1 [ Add0~4_combout $end
$var wire 1 \ ALU_Result[2]~2_combout $end
$var wire 1 ] ALU_Result[2]$latch~combout $end
$var wire 1 ^ Bus1[3]~input_o $end
$var wire 1 _ B[3]~input_o $end
$var wire 1 ` Add0~5 $end
$var wire 1 a Add0~6_combout $end
$var wire 1 b Add1~5 $end
$var wire 1 c Add1~6_combout $end
$var wire 1 d ALU_Result[3]~3_combout $end
$var wire 1 e ALU_Result[3]$latch~combout $end
$var wire 1 f B[4]~input_o $end
$var wire 1 g Bus1[4]~input_o $end
$var wire 1 h Add0~7 $end
$var wire 1 i Add0~8_combout $end
$var wire 1 j Add1~7 $end
$var wire 1 k Add1~8_combout $end
$var wire 1 l ALU_Result[4]~4_combout $end
$var wire 1 m ALU_Result[4]$latch~combout $end
$var wire 1 n Bus1[5]~input_o $end
$var wire 1 o B[5]~input_o $end
$var wire 1 p Add0~9 $end
$var wire 1 q Add0~10_combout $end
$var wire 1 r Add1~9 $end
$var wire 1 s Add1~10_combout $end
$var wire 1 t ALU_Result[5]~5_combout $end
$var wire 1 u ALU_Result[5]$latch~combout $end
$var wire 1 v Bus1[6]~input_o $end
$var wire 1 w B[6]~input_o $end
$var wire 1 x Add0~11 $end
$var wire 1 y Add0~12_combout $end
$var wire 1 z Add1~11 $end
$var wire 1 { Add1~12_combout $end
$var wire 1 | ALU_Result[6]~6_combout $end
$var wire 1 } ALU_Result[6]$latch~combout $end
$var wire 1 ~ B[7]~input_o $end
$var wire 1 !! Bus1[7]~input_o $end
$var wire 1 "! Add0~13 $end
$var wire 1 #! Add0~14_combout $end
$var wire 1 $! Add1~13 $end
$var wire 1 %! Add1~14_combout $end
$var wire 1 &! ALU_Result[7]~7_combout $end
$var wire 1 '! ALU_Result[7]$latch~combout $end
$var wire 1 (! Add1~15 $end
$var wire 1 )! Add1~16_combout $end
$var wire 1 *! NZVC[0]~0_combout $end
$var wire 1 +! NZVC[0]$latch~combout $end
$var wire 1 ,! LessThan0~1_cout $end
$var wire 1 -! LessThan0~3_cout $end
$var wire 1 .! LessThan0~5_cout $end
$var wire 1 /! LessThan0~7_cout $end
$var wire 1 0! LessThan0~9_cout $end
$var wire 1 1! LessThan0~11_cout $end
$var wire 1 2! LessThan0~13_cout $end
$var wire 1 3! LessThan0~14_combout $end
$var wire 1 4! NZVC[1]~2_combout $end
$var wire 1 5! NZVC[1]~1_combout $end
$var wire 1 6! NZVC[1]~3_combout $end
$var wire 1 7! NZVC[1]$latch~combout $end
$var wire 1 8! NZVC[2]~4_combout $end
$var wire 1 9! NZVC[2]~5_combout $end
$var wire 1 :! NZVC[2]~6_combout $end
$var wire 1 ;! NZVC[2]~7_combout $end
$var wire 1 <! NZVC[2]~8_combout $end
$var wire 1 =! NZVC[2]~9_combout $end
$var wire 1 >! NZVC[2]$latch~combout $end
$upscope $end
$upscope $end
$enddefinitions $end
#0
$dumpvars
b0 !
b1100100 "
b10001 #
1+
0*
1)
0(
1'
1&
1%
0$
0/
0.
0-
0,
x0
01
12
x3
14
15
16
17
08
19
0:
1;
1<
1=
0>
0?
0@
0A
0B
0C
1D
0E
1F
1G
1H
0I
0J
1K
1L
1M
0N
0O
0P
0Q
0R
1S
0T
0U
1V
0W
1X
0Y
1Z
1[
1\
1]
0^
0_
0`
0a
1b
0c
0d
0e
0f
1g
1h
1i
0j
1k
1l
1m
0n
1o
0p
1q
0r
0s
1t
1u
0v
1w
1x
1y
0z
1{
1|
1}
0~
0!!
0"!
0#!
1$!
0%!
0&!
0'!
0(!
0)!
0*!
0+!
1,!
0-!
0.!
1/!
10!
11!
02!
03!
04!
05!
06!
07!
08!
09!
0:!
0;!
0<!
0=!
0>!
$end
#50000
b1100101 "
b10011 #
b10010 #
0D
1O
1E
00
0,!
1R
0S
1Q
1S
1T
1U
18
1*
#100000
b1100111 "
b1100110 "
b10011 #
1D
0E
1N
10
1,!
0R
1-!
0X
0S
0Z
0Q
0-!
1X
1S
1Y
0T
1`
0[
0Y
0\
1a
0U
1d
08
0*
0]
09
0)
1e
1:
1(
#150000
b10111 #
b10101 #
b1100111 "
b10100 #
1E
0D
0O
1W
00
0,!
1R
1-!
0X
0S
1Z
1Q
1.!
1[
0b
1Y
1S
0.!
1b
0Y
1T
0[
0/!
1\
1j
1c
1/!
0j
0c
0\
0k
1U
1]
1k
18
19
1*
1)
0]
09
0)
#200000
b1101111 "
b1101011 "
b1101001 "
b1101000 "
b10101 #
1D
0E
0N
0V
1_
10
1,!
0R
0S
0Q
1.!
0`
1[
0b
1Y
1c
0h
0a
0-!
1X
1S
0T
1h
1a
1\
0c
0d
1p
0i
0Y
0p
1i
1d
0x
0q
0l
0U
1]
0e
1x
1q
1l
1"!
0y
0t
08
19
0:
0*
1)
0(
1e
0m
0"!
1y
1t
1#!
0|
1:
0;
1(
0'
1m
0u
0#!
1|
15!
1*!
1&!
1;
0<
1'
0&
1u
0}
05!
0*!
0&!
16!
1<
0=
1&
0%
1}
1+!
1'!
06!
1=
1?
1B
1>
1%
1/
1,
1$
0+!
0'!
17!
0?
0B
0>
1@
0/
0,
0$
1.
07!
0@
0.
#250000
b10111 #
b1101001 "
b10110 #
1E
0D
1O
00
0,!
1R
0S
1Q
1S
1T
1U
18
1*
#300000
b1101011 "
b1101010 "
b10111 #
1D
0E
1N
10
1,!
0R
1-!
0X
0S
0Z
0Q
0-!
1X
1S
1Y
0T
1`
0[
0Y
0\
0h
0a
0U
1p
0i
0d
08
0*
0]
0x
0q
0l
09
0)
0e
1"!
0y
0t
0:
0(
0m
1#!
19!
0|
0;
0'
0u
15!
1*!
1&!
0<
0&
0}
16!
0=
0%
1+!
1'!
1?
1B
1>
1/
1,
1$
17!
1@
1.
#350000
b11111 #
b11011 #
b11001 #
b1101011 "
b11000 #
1E
0D
0O
0W
1^
00
0,!
1R
1-!
0X
0S
1Z
1Q
0`
1[
1Y
0/!
1j
1c
1a
1S
0.!
1b
0Y
1T
0[
0a
1\
0k
1d
09!
1/!
0j
0c
0\
19!
0d
1U
1]
1e
1k
18
19
1:
1*
1)
1(
0]
0e
09
0:
0)
0(
#400000
b1101111 "
b1101101 "
b1101100 "
b11001 #
1D
0E
0N
1V
10
1,!
0R
0S
0Q
1[
1Y
0-!
1X
1S
0T
1\
0Y
0U
1]
08
19
0*
1)
#450000
b11011 #
b1101101 "
b11010 #
1E
0D
1O
00
0,!
1R
0S
1Q
1S
1T
1U
18
1*
#500000
b1 !
b101101 "
b1101 "
b11101 "
b10101 "
b10001 "
b11011 #
1D
0V
0_
1f
0o
0w
1C
10
1P
0G
0F
1.!
0[
0b
1Y
0/!
1j
1c
1h
1a
00!
1r
0k
1i
01!
1z
1s
1x
1q
0{
0"!
1y
05!
0*!
0&!
1|
1l
0\
0Z
0Q
0H
1\
0c
10!
0r
1k
1d
0i
09!
11!
0z
0s
0l
12!
0$!
1{
1t
0y
0|
0#!
06!
0+!
0'!
1}
1m
0]
1[
0d
01!
1z
1s
1l
02!
1$!
0{
0t
13!
1(!
1%!
1|
0?
0B
0>
1=
1;
09
0/
0,
0$
1%
1'
0)
0M
1]
1e
0m
1u
0}
07!
12!
0$!
1{
1t
03!
0(!
0%!
0|
14!
1)!
1&!
07
19
1:
0;
1<
0=
0@
0+
1)
1(
0'
1&
0%
0.
0e
1m
0u
1}
13!
1(!
1%!
1|
04!
0)!
0&!
16!
1*!
0:
1;
0<
1=
0(
1'
0&
1%
1u
0}
1'!
14!
1)!
1&!
06!
0*!
1<
0=
1B
1>
1&
0%
1,
1$
1}
0'!
17!
1+!
16!
1*!
1=
0B
0>
1@
1?
1%
0,
0$
1.
1/
1'!
07!
0+!
1B
1>
0@
0?
1,
1$
0.
0/
17!
1+!
1@
1?
1.
1/
#550000
b11111 #
b10011 "
b11101 #
b10010 "
b11100 #
0E
1N
0D
0O
1W
00
0P
1-!
0X
1`
0[
0Y
1Z
1Q
1Y
0h
0a
0\
0`
1[
1\
1i
0]
1h
1a
09
0)
1]
0i
19
1)
#600000
b10011 "
b11101 #
1D
1E
10
1P
0Z
0Q
1`
0[
0h
0a
1i
#650000
b10111 "
b10101 "
b11111 #
b10100 "
b11110 #
0D
1O
0E
0N
1V
00
0P
0-!
1X
0.!
1[
1b
0Y
1Z
1Q
1.!
0b
1Y
0\
1c
0[
0c
1\
1d
0]
0d
09
0)
1]
1e
19
1:
1)
1(
0e
0:
0(
#700000
b10101 "
b11111 #
1D
1E
10
1P
0Z
0Q
1[
#750000
b111111 #
b101111 #
b100111 #
b100011 #
b10111 "
b100001 #
b10110 "
b100000 #
0E
1N
0D
0O
0W
0^
0g
1n
00
0P
1-!
0X
0.!
0[
1b
0Y
1c
1h
1a
00!
1r
0k
0i
0s
0x
0q
1Z
1Q
1Y
1/!
0\
0j
0c
1d
0p
1i
1s
0l
0t
1y
0`
1[
1\
1k
0d
1x
1q
1t
0]
1e
0m
0u
0a
1l
0y
09
1:
0;
0<
0)
1(
0'
0&
1]
0e
1u
19
0:
1<
1)
0(
1&
1m
1;
1'
#800000
b10111 "
b100001 #
1D
1E
10
1P
0Z
0Q
1`
0[
1a
#850000
b11111 "
b11011 "
b11001 "
b100011 #
b11000 "
b100010 #
0D
1O
0E
0N
0V
1_
00
0P
0-!
1X
0`
1[
0Y
1c
0h
0a
1Z
1Q
1.!
0b
1Y
1h
1a
0\
1d
1p
0i
0[
0c
1\
0p
1i
0x
0q
0]
1e
0d
1x
1q
1y
09
1:
0)
1(
1]
0y
19
1)
0e
0:
0(
#900000
b11001 "
b100011 #
1D
1E
10
1P
0Z
0Q
1[
#950000
b100111 #
b11011 "
b100101 #
b11010 "
b100100 #
0E
1N
0D
0O
1W
00
0P
1-!
0X
1`
0[
0Y
1Z
1Q
1Y
0h
0a
0\
0`
1[
1\
1p
0i
0]
1h
1a
0x
0q
09
0)
1]
0p
1i
1y
19
1)
1x
1q
0y
